{
   "schema": {
      "type":       "object",
      "title":      "Album",
      "properties": {
         "image":  {
            "title":         "Image",
            "type":          "array",
            "format":        "singlefile",
            "x-schema-form": {
               "type": "array"
            },
            "pattern":       {
               "mimeType":          "image/*",
               "validationMessage": "Falscher Dateityp: "
            },
            "maxSize":       {
               "maximum":            "2MB",
               "validationMessage":  "Erlaubte Dateigröße überschritten: ",
               "validationMessage2": "Aktuelle Dateigröße: "
            },
            "maxItems":      {
               "validationMessage": "Es wurden mehr Dateien hochgeladen als erlaubt."
            },
            "minItems":      {
               "validationMessage": "Sie müssen mindestens eine Datei hochladen"
            }
         },
         "images": {
            "title":         "Images",
            "type":          "array",
            "format":        "multifile",
            "x-schema-form": {
               "type": "array"
            },
            "pattern":       {
               "mimeType":          "image/*,!.gif",
               "validationMessage": "Falscher Dateityp: "
            },
            "maxSize":       {
               "maximum":            "2MB",
               "validationMessage":  "Erlaubte Dateigröße überschritten: ",
               "validationMessage2": "Aktuelle Dateigröße: "
            },
            "maxItems":      {
               "validationMessage": "Es wurden mehr Dateien hochgeladen als erlaubt."
            },
            "minItems":      {
               "validationMessage": "Sie müssen mindestens eine Datei hochladen"
            }
         }
      },
      "required":   [
         "images"
      ]
   },
   "form":   [
      {
         "key":      "image",
         "type":     "nwpFileUpload",
         "endpoint": "https://angular-file-upload-cors-srv.appspot.com/upload"
      },
      {
         "key":      "images",
         "type":     "nwpFileUpload",
         "endpoint": "https://angular-file-upload-cors-srv.appspot.com/upload"
      }
   ]
}
